Processing Homework Assignments • parsermd
…
We can also examine the document as a tibble to better understand the chunk labels and structure:

# Convert to tibble for easier inspection
as_tibble(rmd)
#> # A tibble: 24 × 4
#>    sec_h2                             type         label       ast           
#>    <chr>                              <chr>        <chr>       <list>        
#>  1 <NA>                               rmd_yaml     <NA>        <yaml>        
#>  2 Setup                              rmd_heading  <NA>        <heading [h2]>
#>  3 Setup                              rmd_markdown <NA>        <markdown>    
#>  4 Setup                              rmd_chunk    setup       <chunk [r]>   
#>  5 Exercise 1: Basic Data Exploration rmd_heading  <NA>        <heading [h2]>
#>  6 Exercise 1: Basic Data Exploration rmd_markdown <NA>        <markdown>    
#>  7 Exercise 1: Basic Data Exploration rmd_chunk    ex1-student <chunk [r]>   
#>  8 Exercise 1: Basic Data Exploration rmd_chunk    ex1-key     <chunk [r]>   
#>  9 Exercise 2: Data Visualization     rmd_heading  <NA>        <heading [h2]>
#> 10 Exercise 2: Data Visualization     rmd_markdown <NA>        <markdown>    
#> # ℹ 14 more rows
…
